<svg xmlns="http://www.w3.org/2000/svg" width="125.315" height="209.172" viewBox="0 0 125.315 209.172">
  <g id="Group_203" data-name="Group 203" transform="translate(-639.2 -927.965)">
    <path id="Path_1094" data-name="Path 1094" d="M764.5,975.8c-.29-4.631-9.984-5.689-13.845-5.924-4.471-6.541-21.565-11.225-43.013-11.944l-5.257-20.665,3.451,2.367-1.551-4.46,4.041-2.75-4.989.009-1.533-4.465-1.533,4.465-4.989-.009,4.042,2.75-1.551,4.46,3.45-2.366-5.258,20.667c-21.4.731-38.443,5.41-42.908,11.941-3.86.236-13.555,1.294-13.845,5.924-.26,4.145,2.943,130.167,3.118,137.019a8.885,8.885,0,0,0,.6,4.289c1.143,2.941,4.184,6.646,12.023,8.861,1.792.506,3.8,1.08,5.947,1.694,12.064,3.448,28.574,8.166,34.932,8.9a32.662,32.662,0,0,0,12.442-.047c6.606-.871,22.758-5.487,34.559-8.86,2.141-.612,4.145-1.184,5.933-1.689,7.835-2.213,10.878-5.915,12.022-8.856a8.884,8.884,0,0,0,.6-4.294C761.557,1105.949,764.759,979.942,764.5,975.8ZM686.163,996.47a.994.994,0,0,0-.031.245v22.236a.993.993,0,0,1-.993.993h-1.081a.993.993,0,0,0-.993.993v20.478a.993.993,0,0,1-.993.993h-1.337a.993.993,0,0,0-.993.993v12.249a.993.993,0,0,1-.992.993h-3.126a.993.993,0,0,0-.992.993v19.243h-4.165v-8.459a.621.621,0,0,0-.762-.6,3.81,3.81,0,0,0-2.691,3.671,3.81,3.81,0,0,0-2.691-3.671.621.621,0,0,0-.762.6v8.459h-3.375v-8.459a.621.621,0,0,0-.762-.6,3.811,3.811,0,0,0-2.691,3.671,3.811,3.811,0,0,0-2.691-3.671.621.621,0,0,0-.762.6v8.459h-3.6v-8.459a.621.621,0,0,0-.762-.6,3.81,3.81,0,0,0-2.691,3.671,3.831,3.831,0,0,0-2.526-3.612c-.957-38.948-2.157-89.432-2-91.926.112-1.795,6.458-3.349,12.083-3.621l.388-.043.58-.407.132-.233c2.851-5.022,17.761-10.329,40.438-11.2Zm73.845,71.423a3.838,3.838,0,0,0-2.481,3.6,3.811,3.811,0,0,0-2.691-3.671.621.621,0,0,0-.762.6v8.459H750.7v-8.459a.621.621,0,0,0-.762-.6,3.81,3.81,0,0,0-2.691,3.671,3.81,3.81,0,0,0-2.691-3.671.621.621,0,0,0-.762.6v8.459h-3.6v-8.459a.621.621,0,0,0-.762-.6,3.811,3.811,0,0,0-2.691,3.671,3.811,3.811,0,0,0-2.691-3.671.621.621,0,0,0-.762.6v8.459h-4.311v-19.243a.993.993,0,0,0-.993-.993H724.86a.993.993,0,0,1-.993-.993V1043.4a.993.993,0,0,0-.993-.993h-1.337a.993.993,0,0,1-.992-.993v-20.478a.993.993,0,0,0-.992-.993h-1.081a.993.993,0,0,1-.993-.993V996.715a.994.994,0,0,0-.031-.245l-9.165-36.023c22.735.856,37.687,6.172,40.543,11.2l.206.285.518.38.374.018c5.626.27,11.972,1.824,12.085,3.621C762.165,978.445,760.966,1028.943,760.008,1067.894Z" transform="translate(0 0)" fill="#9f231b"/>
    <path id="Path_1095" data-name="Path 1095" d="M781.652,1127.655c2.141-.612,4.145-1.184,5.933-1.689,7.835-2.213,10.878-5.915,12.022-8.856a8.884,8.884,0,0,0,.6-4.294c.175-6.867,3.376-132.873,3.118-137.019-.29-4.631-9.984-5.689-13.845-5.924-4.471-6.541-21.565-11.225-43.013-11.944l-5.257-20.665,3.451,2.367-1.55-4.46,4.041-2.75-4.989.009-1.533-4.465v209.169c.039,0,.077,0,.116,0a31.727,31.727,0,0,0,6.35-.622C753.7,1135.644,769.851,1131.028,781.652,1127.655Zm6-156.007.206.285.518.38.374.018c5.626.27,11.972,1.824,12.085,3.621.156,2.493-1.044,52.991-2,91.941a2.738,2.738,0,1,1-5.173-.074.621.621,0,0,0-.762.6v8.459H789.52v-8.459a.621.621,0,0,0-.762-.6,2.821,2.821,0,1,1-5.381,0,.621.621,0,0,0-.762.6v8.459h-3.6v-8.459a.621.621,0,0,0-.762-.6,2.821,2.821,0,1,1-5.381,0,.621.621,0,0,0-.762.6v8.459H767.8v-19.243a.993.993,0,0,0-.993-.993h-3.125a.993.993,0,0,1-.993-.993V1043.4a.993.993,0,0,0-.993-.993H760.36a.993.993,0,0,1-.993-.993v-20.478a.993.993,0,0,0-.993-.993h-1.081a.993.993,0,0,1-.993-.993V996.715a.99.99,0,0,0-.031-.245L747.1,960.447C769.84,961.3,784.792,966.619,787.648,971.648Z" transform="translate(-38.821 0)" fill="#7c1f15"/>
    <g id="Group_200" data-name="Group 200" transform="translate(663.483 1007.368)">
      <path id="Path_1096" data-name="Path 1096" d="M706.414,1232.073c-.114-.324-.334-.408-1.393-.814-.3-.116-.685-.262-1.161-.45-1.991-.784-8.63-2.378-8.909-2.444l-7.769-1.8a24.642,24.642,0,0,1-5.086-1.9,4.734,4.734,0,0,1-2.164-2.442,10.036,10.036,0,0,0,1.767,1.409c2.338,1.511,9.264,2.958,9.551,3.018.075.017,7.469,1.78,9.33,2.266,1.393.364,3.4,1.139,4.471,1.555.5.194.725.28.807.3h0a.4.4,0,0,0,.428-.1.542.542,0,0,0,.03-.52c-.114-.324-.334-.409-1.392-.813-.3-.117-.685-.262-1.162-.45-1.99-.784-8.627-2.377-8.909-2.444l-7.769-1.805a24.6,24.6,0,0,1-5.086-1.9,4.716,4.716,0,0,1-2.2-2.534,10.01,10.01,0,0,0,1.77,1.413c2.338,1.511,9.264,2.958,9.551,3.018.075.018,7.469,1.78,9.33,2.266,1.394.364,3.4,1.139,4.471,1.556.5.194.725.28.807.3h.006a.4.4,0,0,0,.426-.1.541.541,0,0,0,.03-.52c-.114-.325-.334-.409-1.393-.814-.3-.116-.685-.262-1.162-.45-1.989-.784-8.625-2.378-8.909-2.444l-7.769-1.806a24.614,24.614,0,0,1-5.086-1.9,4.69,4.69,0,0,1-2.234-2.645,9.861,9.861,0,0,0,1.817,1.46c2.338,1.512,9.264,2.958,9.551,3.018.075.017,7.469,1.779,9.33,2.266,1.393.364,3.4,1.139,4.471,1.555.5.194.725.28.807.3h.006a.4.4,0,0,0,.426-.105.542.542,0,0,0,.03-.52c-.114-.324-.334-.409-1.392-.814-.3-.116-.685-.262-1.162-.45-1.99-.784-8.627-2.376-8.909-2.444l-7.769-1.8a24.609,24.609,0,0,1-5.087-1.9,4.7,4.7,0,0,1-2.226-2.62,9.894,9.894,0,0,0,1.809,1.453c2.338,1.512,9.264,2.959,9.551,3.018.075.017,7.469,1.78,9.33,2.266,1.394.364,3.4,1.139,4.471,1.556.5.194.725.28.807.3h.005a.4.4,0,0,0,.426-.1.542.542,0,0,0,.03-.52c-.114-.324-.334-.409-1.394-.813-.3-.117-.684-.262-1.161-.45-1.989-.784-8.625-2.375-8.909-2.444l-7.769-1.8a24.629,24.629,0,0,1-5.086-1.9,4.562,4.562,0,0,1-2.313-2.946l-.041-.238-.217.011a.513.513,0,0,0-.452.266,1.455,1.455,0,0,0,.026,1,2.56,2.56,0,0,0,.433.81.49.49,0,0,0-.345.249,1.455,1.455,0,0,0,.025,1,2.59,2.59,0,0,0,.446.826.494.494,0,0,0-.356.251,1.454,1.454,0,0,0,.026,1,2.494,2.494,0,0,0,.406.772.484.484,0,0,0-.307.243,1.454,1.454,0,0,0,.025,1,2.361,2.361,0,0,0,.351.693.483.483,0,0,0-.283.233,1.458,1.458,0,0,0,.026,1c.048.182.427,1.333,2.695,2.8,2.338,1.511,9.264,2.958,9.551,3.018.075.018,7.469,1.78,9.33,2.266,1.394.364,3.4,1.139,4.472,1.556.5.194.725.28.807.3h.006a.4.4,0,0,0,.425-.1A.54.54,0,0,0,706.414,1232.073Z" transform="translate(-678.541 -1116.62)" fill="#e1b898"/>
      <path id="Path_1097" data-name="Path 1097" d="M757.7,1232.075c.114-.324.334-.408,1.394-.814.3-.117.684-.262,1.161-.45,1.99-.784,8.63-2.378,8.909-2.444l7.769-1.8a24.635,24.635,0,0,0,5.087-1.9,4.732,4.732,0,0,0,2.163-2.442,10.014,10.014,0,0,1-1.767,1.409c-2.338,1.511-9.264,2.958-9.551,3.018-.075.018-7.469,1.78-9.33,2.266-1.394.364-3.4,1.139-4.472,1.556-.5.194-.724.28-.807.3h0a.4.4,0,0,1-.428-.1.541.541,0,0,1-.03-.52c.114-.324.334-.409,1.392-.813.3-.117.685-.262,1.162-.451,1.99-.783,8.627-2.376,8.909-2.444l7.769-1.805a24.622,24.622,0,0,0,5.086-1.9,4.717,4.717,0,0,0,2.2-2.534,10,10,0,0,1-1.77,1.413c-2.338,1.511-9.264,2.958-9.551,3.018-.075.018-7.469,1.78-9.33,2.266-1.393.364-3.4,1.139-4.471,1.556-.5.194-.725.28-.807.3h-.006a.394.394,0,0,1-.426-.1.541.541,0,0,1-.031-.52c.114-.325.335-.409,1.394-.814.3-.116.684-.262,1.161-.45,1.99-.784,8.626-2.378,8.909-2.444l7.769-1.805a24.636,24.636,0,0,0,5.087-1.9,4.691,4.691,0,0,0,2.234-2.645,9.872,9.872,0,0,1-1.816,1.46c-2.338,1.511-9.264,2.958-9.551,3.018-.075.017-7.469,1.78-9.33,2.266-1.394.364-3.4,1.139-4.471,1.556-.5.194-.725.28-.807.3l-.006,0a.4.4,0,0,1-.426-.106.54.54,0,0,1-.03-.52c.114-.324.334-.409,1.392-.814.3-.117.685-.262,1.162-.45,1.99-.784,8.628-2.376,8.909-2.444l7.769-1.8a24.628,24.628,0,0,0,5.086-1.9,4.7,4.7,0,0,0,2.226-2.62,9.9,9.9,0,0,1-1.809,1.453c-2.338,1.512-9.264,2.958-9.551,3.018-.075.017-7.469,1.78-9.33,2.266-1.394.364-3.4,1.14-4.472,1.556-.5.193-.725.28-.807.3H758.6a.394.394,0,0,1-.426-.105.54.54,0,0,1-.031-.52c.114-.324.335-.409,1.394-.813.3-.117.685-.262,1.161-.45,1.99-.784,8.625-2.375,8.909-2.444l7.769-1.8a24.63,24.63,0,0,0,5.087-1.9,4.567,4.567,0,0,0,2.313-2.945l.041-.238.217.011a.512.512,0,0,1,.452.266,1.459,1.459,0,0,1-.025,1,2.565,2.565,0,0,1-.434.81.491.491,0,0,1,.346.249,1.458,1.458,0,0,1-.026,1,2.588,2.588,0,0,1-.446.827.491.491,0,0,1,.356.251,1.455,1.455,0,0,1-.025,1,2.52,2.52,0,0,1-.406.772.487.487,0,0,1,.307.243,1.454,1.454,0,0,1-.026,1,2.361,2.361,0,0,1-.351.693.483.483,0,0,1,.283.233,1.454,1.454,0,0,1-.026,1c-.047.182-.427,1.333-2.694,2.8-2.338,1.511-9.264,2.958-9.551,3.018-.075.018-7.469,1.78-9.33,2.266-1.394.364-3.4,1.139-4.472,1.556-.5.194-.724.28-.806.3h-.006a.4.4,0,0,1-.425-.1A.54.54,0,0,1,757.7,1232.075Z" transform="translate(-708.818 -1116.621)" fill="#e1b898"/>
      <path id="Path_1098" data-name="Path 1098" d="M735.71,1056.6a7.848,7.848,0,1,0,7.848,7.848A7.857,7.857,0,0,0,735.71,1056.6Zm0,14.426a6.578,6.578,0,1,1,6.578-6.579A6.586,6.586,0,0,1,735.71,1071.031Z" transform="translate(-697.418 -1056.605)" fill="#e1b898"/>
      <g id="Group_199" data-name="Group 199" transform="translate(23.096 68.683)">
        <path id="Path_1099" data-name="Path 1099" d="M756.239,1174.456c-.339,1.515-1.3,1.54-1.3,1.54h-13.25V1167.9a63.378,63.378,0,0,1,12.864.731C756.5,1169.07,756.572,1172.94,756.239,1174.456Z" transform="translate(-725.805 -1167.877)" fill="#e1b898"/>
        <path id="Path_1100" data-name="Path 1100" d="M730.662,1167.9V1176h-13.25s-.963-.024-1.3-1.54-.262-5.386,1.688-5.82A63.382,63.382,0,0,1,730.662,1167.9Z" transform="translate(-715.957 -1167.877)" fill="#e1b898"/>
      </g>
      <circle id="Ellipse_54" data-name="Ellipse 54" cx="3.718" cy="3.718" r="3.718" transform="translate(62.381 89.695)" fill="#e1b898"/>
      <circle id="Ellipse_55" data-name="Ellipse 55" cx="3.718" cy="3.718" r="3.718" transform="translate(8.409 89.695)" fill="#e1b898"/>
      <path id="Path_1101" data-name="Path 1101" d="M743.518,1208.639l-7.812-1.885a1.368,1.368,0,0,0-1.142,0l-7.811,1.885a1.249,1.249,0,0,0-.683,1.152v19.931a1.793,1.793,0,0,0,.981,1.654l7.513,3.409a1.4,1.4,0,0,0,1.142,0l7.514-3.409a1.793,1.793,0,0,0,.981-1.654V1209.79A1.25,1.25,0,0,0,743.518,1208.639ZM733.3,1229.41l-1.249-.532a1.141,1.141,0,0,1-.669-1.059v-12.759a.757.757,0,0,1,.016-.114.78.78,0,0,1,.449-.623l1.452-.329Zm1.307-18.552-4.471,1.032a1.213,1.213,0,0,0-.7,1.124v17.762l-1.517-.688a1.591,1.591,0,0,1-.87-1.467v-17.679a1.108,1.108,0,0,1,.605-1.022l6.929-1.672.021-.007Zm8.527,17.763a1.591,1.591,0,0,1-.87,1.467l-1.626.738v-9.349l-2.479-.116v10.59l-2.56,1.161-.02.007v-24.876l.02.007,2.56.618v10.348l2.479.116v-9.866l1.89.456a1.077,1.077,0,0,1,.585.863,1.214,1.214,0,0,1,.021.157Z" transform="translate(-696.732 -1114.027)" fill="#e1b898" fill-rule="evenodd"/>
    </g>
    <path id="Path_1102" data-name="Path 1102" d="M706.414,1232.073c-.114-.324-.334-.408-1.393-.814-.3-.116-.685-.262-1.161-.45-1.991-.784-8.63-2.378-8.909-2.444l-7.769-1.8a24.642,24.642,0,0,1-5.086-1.9,4.734,4.734,0,0,1-2.164-2.442,10.036,10.036,0,0,0,1.767,1.409c2.338,1.511,9.264,2.958,9.551,3.018.075.017,7.469,1.78,9.33,2.266,1.393.364,3.4,1.139,4.471,1.555.5.194.725.28.807.3h0a.4.4,0,0,0,.428-.1.542.542,0,0,0,.03-.52c-.114-.324-.334-.409-1.392-.813-.3-.117-.685-.262-1.162-.45-1.99-.784-8.627-2.377-8.909-2.444l-7.769-1.805a24.6,24.6,0,0,1-5.086-1.9,4.716,4.716,0,0,1-2.2-2.534,10.01,10.01,0,0,0,1.77,1.413c2.338,1.511,9.264,2.958,9.551,3.018.075.018,7.469,1.78,9.33,2.266,1.394.364,3.4,1.139,4.471,1.556.5.194.725.28.807.3h.006a.4.4,0,0,0,.426-.1.541.541,0,0,0,.03-.52c-.114-.325-.334-.409-1.393-.814-.3-.116-.685-.262-1.162-.45-1.989-.784-8.625-2.378-8.909-2.444l-7.769-1.806a24.614,24.614,0,0,1-5.086-1.9,4.69,4.69,0,0,1-2.234-2.645,9.861,9.861,0,0,0,1.817,1.46c2.338,1.512,9.264,2.958,9.551,3.018.075.017,7.469,1.779,9.33,2.266,1.393.364,3.4,1.139,4.471,1.555.5.194.725.28.807.3h.006a.4.4,0,0,0,.426-.105.542.542,0,0,0,.03-.52c-.114-.324-.334-.409-1.392-.814-.3-.116-.685-.262-1.162-.45-1.99-.784-8.627-2.376-8.909-2.444l-7.769-1.8a24.609,24.609,0,0,1-5.087-1.9,4.7,4.7,0,0,1-2.226-2.62,9.894,9.894,0,0,0,1.809,1.453c2.338,1.512,9.264,2.959,9.551,3.018.075.017,7.469,1.78,9.33,2.266,1.394.364,3.4,1.139,4.471,1.556.5.194.725.28.807.3h.005a.4.4,0,0,0,.426-.1.542.542,0,0,0,.03-.52c-.114-.324-.334-.409-1.394-.813-.3-.117-.684-.262-1.161-.45-1.989-.784-8.625-2.375-8.909-2.444l-7.769-1.8a24.629,24.629,0,0,1-5.086-1.9,4.562,4.562,0,0,1-2.313-2.946l-.041-.238-.217.011a.513.513,0,0,0-.452.266,1.455,1.455,0,0,0,.026,1,2.56,2.56,0,0,0,.433.81.49.49,0,0,0-.345.249,1.455,1.455,0,0,0,.025,1,2.59,2.59,0,0,0,.446.826.494.494,0,0,0-.356.251,1.454,1.454,0,0,0,.026,1,2.494,2.494,0,0,0,.406.772.484.484,0,0,0-.307.243,1.454,1.454,0,0,0,.025,1,2.361,2.361,0,0,0,.351.693.483.483,0,0,0-.283.233,1.458,1.458,0,0,0,.026,1c.048.182.427,1.333,2.695,2.8,2.338,1.511,9.264,2.958,9.551,3.018.075.018,7.469,1.78,9.33,2.266,1.394.364,3.4,1.139,4.472,1.556.5.194.725.28.807.3h.006a.4.4,0,0,0,.425-.1A.54.54,0,0,0,706.414,1232.073Z" transform="translate(-15.058 -109.252)" fill="#e1b898"/>
    <path id="Path_1103" data-name="Path 1103" d="M730.662,1167.9V1176h-13.25s-.963-.024-1.3-1.54-.262-5.386,1.688-5.82A63.382,63.382,0,0,1,730.662,1167.9Z" transform="translate(-29.379 -91.827)" fill="#e1b898"/>
    <circle id="Ellipse_56" data-name="Ellipse 56" cx="3.718" cy="3.718" r="3.718" transform="translate(671.892 1097.063)" fill="#e1b898"/>
    <g id="Group_202" data-name="Group 202" transform="translate(701.775 960.447)">
      <g id="Group_201" data-name="Group 201" transform="translate(0 46.921)">
        <path id="Path_1104" data-name="Path 1104" d="M757.7,1232.075c.114-.324.334-.408,1.394-.814.3-.117.684-.262,1.161-.45,1.99-.784,8.63-2.378,8.909-2.444l7.769-1.8a24.635,24.635,0,0,0,5.087-1.9,4.732,4.732,0,0,0,2.163-2.442,10.014,10.014,0,0,1-1.767,1.409c-2.338,1.511-9.264,2.958-9.551,3.018-.075.018-7.469,1.78-9.33,2.266-1.394.364-3.4,1.139-4.472,1.556-.5.194-.724.28-.807.3h0a.4.4,0,0,1-.428-.1.541.541,0,0,1-.03-.52c.114-.324.334-.409,1.392-.813.3-.117.685-.262,1.162-.451,1.99-.783,8.627-2.376,8.909-2.444l7.769-1.805a24.622,24.622,0,0,0,5.086-1.9,4.717,4.717,0,0,0,2.2-2.534,10,10,0,0,1-1.77,1.413c-2.338,1.511-9.264,2.958-9.551,3.018-.075.018-7.469,1.78-9.33,2.266-1.393.364-3.4,1.139-4.471,1.556-.5.194-.725.28-.807.3h-.006a.394.394,0,0,1-.426-.1.541.541,0,0,1-.031-.52c.114-.325.335-.409,1.394-.814.3-.116.684-.262,1.161-.45,1.99-.784,8.626-2.378,8.909-2.444l7.769-1.805a24.636,24.636,0,0,0,5.087-1.9,4.691,4.691,0,0,0,2.234-2.645,9.872,9.872,0,0,1-1.816,1.46c-2.338,1.511-9.264,2.958-9.551,3.018-.075.017-7.469,1.78-9.33,2.266-1.394.364-3.4,1.139-4.471,1.556-.5.194-.725.28-.807.3l-.006,0a.4.4,0,0,1-.426-.106.54.54,0,0,1-.03-.52c.114-.324.334-.409,1.392-.814.3-.117.685-.262,1.162-.45,1.99-.784,8.628-2.376,8.909-2.444l7.769-1.8a24.628,24.628,0,0,0,5.086-1.9,4.7,4.7,0,0,0,2.226-2.62,9.9,9.9,0,0,1-1.809,1.453c-2.338,1.512-9.264,2.958-9.551,3.018-.075.017-7.469,1.78-9.33,2.266-1.394.364-3.4,1.14-4.472,1.556-.5.193-.725.28-.807.3H758.6a.394.394,0,0,1-.426-.105.54.54,0,0,1-.031-.52c.114-.324.335-.409,1.394-.813.3-.117.685-.262,1.161-.45,1.99-.784,8.625-2.375,8.909-2.444l7.769-1.8a24.63,24.63,0,0,0,5.087-1.9,4.567,4.567,0,0,0,2.313-2.945l.041-.238.217.011a.512.512,0,0,1,.452.266,1.459,1.459,0,0,1-.025,1,2.565,2.565,0,0,1-.434.81.491.491,0,0,1,.346.249,1.458,1.458,0,0,1-.026,1,2.588,2.588,0,0,1-.446.827.491.491,0,0,1,.356.251,1.455,1.455,0,0,1-.025,1,2.52,2.52,0,0,1-.406.772.487.487,0,0,1,.307.243,1.454,1.454,0,0,1-.026,1,2.361,2.361,0,0,1-.351.693.483.483,0,0,1,.283.233,1.454,1.454,0,0,1-.026,1c-.047.182-.427,1.333-2.694,2.8-2.338,1.511-9.264,2.958-9.551,3.018-.075.018-7.469,1.78-9.33,2.266-1.394.364-3.4,1.139-4.472,1.556-.5.194-.724.28-.806.3h-.006a.4.4,0,0,1-.425-.1A.54.54,0,0,1,757.7,1232.075Z" transform="translate(-747.11 -1116.621)" fill="#feb378"/>
        <path id="Path_1105" data-name="Path 1105" d="M740.577,1056.6h0v1.27h0a6.578,6.578,0,0,1,0,13.157h0v1.27h0a7.848,7.848,0,0,0,0-15.7Z" transform="translate(-740.577 -1056.605)" fill="#feb378"/>
        <path id="Path_1106" data-name="Path 1106" d="M756.239,1174.456c-.339,1.515-1.3,1.54-1.3,1.54h-13.25V1167.9a63.378,63.378,0,0,1,12.864.731C756.5,1169.07,756.572,1172.94,756.239,1174.456Z" transform="translate(-741.002 -1099.194)" fill="#feb378"/>
        <circle id="Ellipse_57" data-name="Ellipse 57" cx="3.718" cy="3.718" r="3.718" transform="translate(24.089 89.695)" fill="#feb378"/>
        <path id="Path_1107" data-name="Path 1107" d="M749.07,1208.643l-7.812-1.885a1.359,1.359,0,0,0-.681-.113V1234.9a1.38,1.38,0,0,0,.681-.11l7.514-3.409a1.793,1.793,0,0,0,.981-1.654v-19.931A1.25,1.25,0,0,0,749.07,1208.643Zm-.388,19.981a1.591,1.591,0,0,1-.87,1.467l-1.626.738v-9.349l-2.479-.116v10.59l-2.56,1.161-.02.007v-24.876l.02.007,2.56.618v10.348l2.479.116v-9.866l1.89.456a1.077,1.077,0,0,1,.585.863,1.206,1.206,0,0,1,.021.157Z" transform="translate(-740.577 -1114.031)" fill="#feb378"/>
      </g>
      <path id="Path_1108" data-name="Path 1108" d="M804.848,996.094c-.113-1.8-6.459-3.351-12.085-3.621l-.374-.018-.518-.38-.206-.285c-2.856-5.029-17.808-10.345-40.543-11.2l.243.955h0l8.922,35.068a.99.99,0,0,1,.031.245v22.236a.993.993,0,0,0,.993.993h1.081a.993.993,0,0,1,.993.993v20.478a.993.993,0,0,0,.993.993h1.336a.993.993,0,0,1,.993.993v12.249a.993.993,0,0,0,.993.993h3.125a.993.993,0,0,1,.993.993v19.243h4.311v-8.459a.621.621,0,0,1,.762-.6,2.821,2.821,0,1,0,5.381,0,.621.621,0,0,1,.762.6v8.459h3.6v-8.459a.621.621,0,0,1,.762-.6,2.821,2.821,0,1,0,5.381,0,.621.621,0,0,1,.762.6v8.459h3.375v-8.459a.621.621,0,0,1,.762-.6,2.738,2.738,0,1,0,5.173.074C803.8,1049.085,805,998.587,804.848,996.094Z" transform="translate(-744.613 -980.589)" fill="#feb378"/>
    </g>
    <path id="Path_1109" data-name="Path 1109" d="M661.733,1091.77v5.251h3.375v-8.459a.621.621,0,0,1,.762-.6,3.81,3.81,0,0,1,2.691,3.671,3.81,3.81,0,0,1,2.691-3.671.621.621,0,0,1,.762.6v8.459h4.165v-19.243a.993.993,0,0,1,.992-.993H680.3a.993.993,0,0,0,.992-.993v-12.249a.993.993,0,0,1,.993-.993h1.337a.992.992,0,0,0,.992-.992V1041.08a.993.993,0,0,1,.993-.993h1.081a.993.993,0,0,0,.993-.993v-22.236a.989.989,0,0,1,.031-.244l9.125-35.868h0l.038-.151c-22.677.869-37.587,6.176-40.438,11.2l-.132.233-.58.407-.388.043c-5.626.273-11.972,1.826-12.083,3.621-.156,2.494,1.043,52.978,2,91.926a3.831,3.831,0,0,1,2.526,3.612,3.811,3.811,0,0,1,2.691-3.671.621.621,0,0,1,.762.6v8.459h3.6v-8.459a.621.621,0,0,1,.762-.6,3.81,3.81,0,0,1,2.691,3.671,3.811,3.811,0,0,1,2.691-3.671.621.621,0,0,1,.762.6v3.207Z" transform="translate(-1.545 -20.144)" fill="#e1b898"/>
  </g>
</svg>
